Fundamentals of Data Wrangling and Analysis in R
…
---

### `select`

```r
nhanes %>%
  select(age)
```

```
## # A tibble: 10,000 x 1
##      age
##    <dbl>
##  1    34
##  2    34
##  3    34
##  4     4
##  5    49
##  6     9
##  7     8
##  8    45
##  9    45
## 10    45
## # … with 9,990 more rows
```

---

### Other ways we can `select` variables

Select multiple variables by listing them:

```r
nhanes %>%
  select(height, weight)
```

```
## # A tibble: 10,000 x 2
##    height weight
##     <dbl>  <dbl>
##  1   165.   87.4
##  2   165.   87.4
##  3   165.   87.4
##  4   105.   17  
##  5   168.   86.7
##  6   133.   29.8
##  7   131.   35.2
##  8   167.   75.7
##  9   167.   75.7
## 10   167.   75.7
## # … with 9,990 more rows
```

---

### Other ways we can `select` variables

You can use `one_of()` to do the same thing:

```r
nhanes %>%
  select(one_of(c("height", "weight")))
```

```
## # A tibble: 10,000 x 2
##    height weight
##     <dbl>  <dbl>
##  1   165.   87.4
##  2   165.   87.4
##  3   165.   87.4
##  4   105.   17  
##  5   168.   86.7
##  6   133.   29.8
##  7   131.   35.2
##  8   167.   75.7
##  9   167.   75.7
## 10   167.   75.7
## # … with 9,990 more rows
```

---

### Other ways we can `select` variables

`contain()` selects variable with certain text in the variable name:

```r
nhanes %>%
  select(contains("age"))
```

```
## # A tibble: 10,000 x 2
##      age age_decade
##    <dbl> <chr>     
##  1    34 30-39     
##  2    34 30-39     
##  3    34 30-39     
##  4     4 0-9       
##  5    49 40-49     
##  6     9 0-9       
##  7     8 0-9       
##  8    45 40-49     
##  9    45 40-49     
## 10    45 40-49     
## # … with 9,990 more rows
```

---

### Other ways we can `select` variables

You can select a range of columns using the var1:var2 pattern

```r
nhanes %>%
  select(weight:bmi)
```

```
## # A tibble: 10,000 x 3
##    weight height   bmi
##     <dbl>  <dbl> <dbl>
##  1   87.4   165.  32.2
##  2   87.4   165.  32.2
##  3   87.4   165.  32.2
##  4   17     105.  15.3
##  5   86.7   168.  30.6
##  6   29.8   133.  16.8
##  7   35.2   131.  20.6
##  8   75.7   167.  27.2
##  9   75.7   167.  27.2
## 10   75.7   167.  27.2
## # … with 9,990 more rows
```

---

### Other ways we can `select` variables

Drop variables using the -var format:

```r
nhanes %>%
  select(-id)
```

```
## # A tibble: 10,000 x 21
##    survey_yr gender   age age_decade race1 education marital_status
##    <chr>     <chr>  <dbl> <chr>      <chr> <chr>     <chr>         
##  1 2009_10   male      34 30-39      White High Sch… Married       
##  2 2009_10   male      34 30-39      White High Sch… Married       
##  3 2009_10   male      34 30-39      White High Sch… Married       
##  4 2009_10   male       4 0-9        Other <NA>      <NA>          
##  5 2009_10   female    49 40-49      White Some Col… LivePartner   
##  6 2009_10   male       9 0-9        White <NA>      <NA>          
##  7 2009_10   male       8 0-9        White <NA>      <NA>          
##  8 2009_10   female    45 40-49      White College … Married       
##  9 2009_10   female    45 40-49      White College … Married       
## 10 2009_10   female    45 40-49      White College … Married       
## # … with 9,990 more rows, and 14 more variables: hh_income <chr>,
## #   home_own <chr>, work <chr>, weight <dbl>, height <dbl>, bmi <dbl>,
## #   health_gen <chr>, days_phys_hlth_bad <dbl>, days_ment_hlth_bad <dbl>,
## #   sleep_hrs_night <dbl>, phys_active <chr>, phys_active_days <dbl>,
## #   tv_hrs_day <lgl>, smoke_now <chr>
```

---

### Other ways we can `select` variables

Drop a set of variables using the -(var1:var2) format:

```r
nhanes %>%
  select(-(id:education))
```

```
## # A tibble: 10,000 x 15
##    marital_status hh_income home_own work  weight height   bmi health_gen
##    <chr>          <chr>     <chr>    <chr>  <dbl>  <dbl> <dbl> <chr>     
##  1 Married        25000-34… Own      NotW…   87.4   165.  32.2 Good      
##  2 Married        25000-34… Own      NotW…   87.4   165.  32.2 Good      
##  3 Married        25000-34… Own      NotW…   87.4   165.  32.2 Good      
##  4 <NA>           20000-24… Own      <NA>    17     105.  15.3 <NA>      
##  5 LivePartner    35000-44… Rent     NotW…   86.7   168.  30.6 Good      
##  6 <NA>           75000-99… Rent     <NA>    29.8   133.  16.8 <NA>      
##  7 <NA>           55000-64… Own      <NA>    35.2   131.  20.6 <NA>      
##  8 Married        75000-99… Own      Work…   75.7   167.  27.2 Vgood     
##  9 Married        75000-99… Own      Work…   75.7   167.  27.2 Vgood     
## 10 Married        75000-99… Own      Work…   75.7   167.  27.2 Vgood     
## # … with 9,990 more rows, and 7 more variables: days_phys_hlth_bad <dbl>,
## #   days_ment_hlth_bad <dbl>, sleep_hrs_night <dbl>, phys_active <chr>,
## #   phys_active_days <dbl>, tv_hrs_day <lgl>, smoke_now <chr>
```
…
You can use `mutate` in three ways.

---

### 1. Create a **new variable with a specific value**

```r
nhanes %>%
  mutate(country = "United States") %>% 
  select(country)
```

```
## # A tibble: 10,000 x 1
##    country      
##    <chr>        
##  1 United States
##  2 United States
##  3 United States
##  4 United States
##  5 United States
##  6 United States
##  7 United States
##  8 United States
##  9 United States
## 10 United States
## # … with 9,990 more rows
```

---

### 2. Create a **new variable based on other variables**

```r
nhanes %>%
  mutate(height_inches = height / 2.54) %>% 
  select(contains("height"))
```

```
## # A tibble: 10,000 x 2
##    height height_inches
##     <dbl>         <dbl>
##  1   165.          64.8
##  2   165.          64.8
##  3   165.          64.8
##  4   105.          41.5
##  5   168.          66.3
##  6   133.          52.4
##  7   131.          51.4
##  8   167.          65.6
##  9   167.          65.6
## 10   167.          65.6
## # … with 9,990 more rows
```

---

### 3. Change an **existing variable**

```r
nhanes %>%
  mutate(bmi = round(bmi, digits = 1)) %>% 
  select(bmi)
```

```
## # A tibble: 10,000 x 1
##      bmi
##    <dbl>
##  1  32.2
##  2  32.2
##  3  32.2
##  4  15.3
##  5  30.6
##  6  16.8
##  7  20.6
##  8  27.2
##  9  27.2
## 10  27.2
## # … with 9,990 more rows
```
…
---

### `filter`

```r
nhanes %>% 
* filter(gender == "female") %>%
  select(gender)
```

```
## # A tibble: 5,020 x 1
##    gender
##    <chr> 
##  1 female
##  2 female
##  3 female
##  4 female
##  5 female
##  6 female
##  7 female
##  8 female
##  9 female
## 10 female
## # … with 5,010 more rows
```

---

### `filter`

```r
nhanes %>% 
* filter(health_gen != "Good") %>%
  select(health_gen)
```

```
## # A tibble: 4,583 x 1
##    health_gen
##    <chr>     
##  1 Vgood     
##  2 Vgood     
##  3 Vgood     
##  4 Vgood     
##  5 Vgood     
##  6 Fair      
##  7 Fair      
##  8 Vgood     
##  9 Fair      
## 10 Excellent 
## # … with 4,573 more rows
```
…
---

### `filter`

```r
nhanes %>% 
* filter(health_gen != "Good" | health_gen != "VGood" | health_gen != "Excellent") %>%
  select(health_gen)
```

```
## # A tibble: 7,539 x 1
##    health_gen
##    <chr>     
##  1 Good      
##  2 Good      
##  3 Good      
##  4 Good      
##  5 Vgood     
##  6 Vgood     
##  7 Vgood     
##  8 Vgood     
##  9 Vgood     
## 10 Fair      
## # … with 7,529 more rows
```

---

### `filter`

```r
nhanes %>% 
* filter(health_gen %in% c("Good", "VGood", "Excellent")) %>%
  select(health_gen)
```

```
## # A tibble: 3,834 x 1
##    health_gen
##    <chr>     
##  1 Good      
##  2 Good      
##  3 Good      
##  4 Good      
##  5 Good      
##  6 Good      
##  7 Good      
##  8 Excellent 
##  9 Good      
## 10 Good      
## # … with 3,824 more rows
```
…
---

### `filter`

Use <, >, <=, and => for numeric data.

```r
nhanes %>% 
* filter(age > 50) %>%
  select(age)
```

```
## # A tibble: 2,972 x 1
##      age
##    <dbl>
##  1    66
##  2    58
##  3    54
##  4    58
##  5    60
##  6    56
##  7    56
##  8    57
##  9    54
## 10    54
## # … with 2,962 more rows
```
---

### `filter`

You can drop `NAs` with `!is.na()` 

```r
nhanes %>% 
  filter(age > 50) %>% 
* filter(!is.na(marital_status)) %>%
  select(age, marital_status)
```

```
## # A tibble: 2,969 x 2
##      age marital_status
##    <dbl> <chr>         
##  1    66 Married       
##  2    58 Divorced      
##  3    54 Married       
##  4    58 Married       
##  5    60 Married       
##  6    56 Married       
##  7    56 Married       
##  8    57 Married       
##  9    54 Divorced      
## 10    54 Divorced      
## # … with 2,959 more rows
```
---

### `filter`

You can also drop `NAs` with `drop_na()`

```r
nhanes %>% 
  filter(age > 50) %>% 
* drop_na(marital_status) %>%
  select(age, marital_status)
```

```
## # A tibble: 2,969 x 2
##      age marital_status
##    <dbl> <chr>         
##  1    66 Married       
##  2    58 Divorced      
##  3    54 Married       
##  4    58 Married       
##  5    60 Married       
##  6    56 Married       
##  7    56 Married       
##  8    57 Married       
##  9    54 Divorced      
## 10    54 Divorced      
## # … with 2,959 more rows
```
…
